{
    "Surf": {
        "discrete": false, 
        "colors": [
            "#0000ff", 
            "#87ceeb", 
            "#90ee90", 
            "#ffff00", 
            "#ffa500", 
            "#ff4500", 
            "#ff0000"
        ], 
        "values": [
            310.0, 
            405.0, 
            500.0, 
            595.0, 
            690.0, 
            785.0, 
            880.0
        ], 
        "log": false
    }, 
    "Block Name": {
        "discrete": true, 
        "colors": [
            "#0000ff", 
            "#87ceeb", 
            "#90ee90", 
            "#ffff00", 
            "#ffa500", 
            "#ff4500", 
            "#ff0000"
        ], 
        "values": [
            "AAAAA", 
            "EEEEE", 
            "IIIII", 
            "MMMMM", 
            "QQQQQ", 
            "UUUUU", 
            "ZZZZZ"
        ], 
        "log": false
    }, 
    "Temperature": {
        "discrete": false, 
        "colors": [
            "#0000ff", 
            "#87ceeb", 
            "#90ee90", 
            "#ffff00", 
            "#ffa500", 
            "#ff4500", 
            "#ff0000"
        ], 
        "label_formatter": "format_temp", 
        "values": [
            0.0, 
            50.0, 
            100.0, 
            150.0, 
            200.0, 
            250.0, 
            300.0
        ], 
        "log": false
    }, 
    "Pressure": {
        "discrete": false, 
        "colors": [
            "#0000ff", 
            "#87ceeb", 
            "#90ee90", 
            "#ffff00", 
            "#ffa500", 
            "#ff4500", 
            "#ff0000"
        ], 
        "label_formatter": "format_pres", 
        "values": [
            0.0, 
            5000000.0, 
            10000000.0, 
            15000000.0, 
            20000000.0, 
            25000000.0, 
            30000000.0
        ], 
        "log": false
    }, 
    "Gas saturatio": {
        "discrete": false, 
        "colors": [
            "#0000ff", 
            "#87ceeb", 
            "#90ee90", 
            "#ffff00", 
            "#ffa500", 
            "#ff4500", 
            "#ff0000"
        ], 
        "values": [
            0.0, 
            0.16, 
            0.33, 
            0.5, 
            0.66, 
            0.84, 
            1.0
        ], 
        "log": false
    }, 
    "Capillary press": {
        "discrete": false, 
        "colors": [
            "#0000ff", 
            "#87ceeb", 
            "#90ee90", 
            "#ffff00", 
            "#ffa500", 
            "#ff4500", 
            "#ff0000"
        ], 
        "values": [
            0.0, 
            0.16, 
            0.33, 
            0.5, 
            0.66, 
            0.84, 
            1.0
        ], 
        "log": false
    }, 
    "Gas saturati": {
        "discrete": false, 
        "colors": [
            "#0000ff", 
            "#87ceeb", 
            "#90ee90", 
            "#ffff00", 
            "#ffa500", 
            "#ff4500", 
            "#ff0000"
        ], 
        "values": [
            0.0, 
            0.16, 
            0.33, 
            0.5, 
            0.66, 
            0.84, 
            1.0
        ], 
        "log": false
    }, 
    "Gas density": {
        "discrete": false, 
        "colors": [
            "#0000ff", 
            "#87ceeb", 
            "#90ee90", 
            "#ffff00", 
            "#ffa500", 
            "#ff4500", 
            "#ff0000"
        ], 
        "values": [
            0.0, 
            3.0, 
            6.0, 
            10.0, 
            13.0, 
            16.0, 
            20.0
        ], 
        "log": false
    }, 
    "Air gas mass fra": {
        "discrete": false, 
        "colors": [
            "#0000ff", 
            "#87ceeb", 
            "#90ee90", 
            "#ffff00", 
            "#ffa500", 
            "#ff4500", 
            "#ff0000"
        ], 
        "values": [
            0.0, 
            0.16, 
            0.33, 
            0.5, 
            0.66, 
            0.84, 
            1.0
        ], 
        "log": false
    }, 
    "K 1": {
        "discrete": false, 
        "colors": [
            "#0000ff", 
            "#87ceeb", 
            "#90ee90", 
            "#ffff00", 
            "#ffa500", 
            "#ff4500", 
            "#ff0000"
        ], 
        "label_formatter": "format_perm", 
        "values": [
            -16.0, 
            -15.301, 
            -14.699, 
            -14.0, 
            -13.301, 
            -12.699, 
            -12.0
        ], 
        "log": true
    }, 
    "K 2": {
        "discrete": false, 
        "colors": [
            "#0000ff", 
            "#87ceeb", 
            "#90ee90", 
            "#ffff00", 
            "#ffa500", 
            "#ff4500", 
            "#ff0000"
        ], 
        "label_formatter": "format_perm", 
        "values": [
            -16.0, 
            -15.301, 
            -14.699, 
            -14.0, 
            -13.301, 
            -12.699, 
            -12.0
        ], 
        "log": true
    }, 
    "K Max": {
        "discrete": false, 
        "colors": [
            "#0000ff", 
            "#87ceeb", 
            "#90ee90", 
            "#ffff00", 
            "#ffa500", 
            "#ff4500", 
            "#ff0000"
        ], 
        "label_formatter": "format_perm", 
        "values": [
            -16.0, 
            -15.301, 
            -14.699, 
            -14.0, 
            -13.301, 
            -12.699, 
            -12.0
        ], 
        "log": true
    }, 
    "Air liquid mass": {
        "discrete": false, 
        "colors": [
            "#0000ff", 
            "#87ceeb", 
            "#90ee90", 
            "#ffff00", 
            "#ffa500", 
            "#ff4500", 
            "#ff0000"
        ], 
        "values": [
            0.0, 
            0.16, 
            0.33, 
            0.5, 
            0.66, 
            0.84, 
            1.0
        ], 
        "log": false
    }, 
    "Total Mass Production": {
        "discrete": false, 
        "colors": [
            "#0000ff", 
            "#87ceeb", 
            "#90ee90", 
            "#ffff00", 
            "#ffa500", 
            "#ff4500", 
            "#ff0000"
        ], 
        "values": [
            0.0, 
            5.0, 
            10.0, 
            15.0, 
            20.0, 
            25.0, 
            30.0
        ], 
        "log": false
    }, 
    "No Fill": {
        "discrete": false, 
        "colors": [
            "#0000ff", 
            "#008000", 
            "#ffff00", 
            "#ff0000"
        ], 
        "values": [
            0.0, 
            0.33, 
            0.66, 
            1.0
        ], 
        "log": false
    }, 
    "Rock Type": {
        "discrete": true, 
        "regular_expression": true, 
        "colors": [
            "#00008b", 
            "#0000ff", 
            "#87ceeb", 
            "#add8e6", 
            "#7fffd4", 
            "#90ee90", 
            "#9acd32", 
            "#ffff00", 
            "#ffd700", 
            "#daa520", 
            "#ffa500", 
            "#ff4500", 
            "#ff0000", 
            "#8b0000"
        ], 
        "values": [
            "AT...", 
            "BA...", 
            "HU...", 
            "MC...", 
            "PU...", 
            "RH...", 
            "TF...", 
            "TH...", 
            "TM...", 
            "TW...", 
            "WA...", 
            "WE...", 
            "WF...", 
            "WW..."
        ], 
        "log": false
    }, 
    "Rock Type Name": {
        "discrete": true, 
        "regular_expression": true, 
        "colors": [
            "#00008b", 
            "#0000ff", 
            "#87ceeb", 
            "#add8e6", 
            "#7fffd4", 
            "#90ee90", 
            "#9acd32", 
            "#ffff00", 
            "#ffd700", 
            "#daa520", 
            "#ffa500", 
            "#ff4500", 
            "#ff0000", 
            "#8b0000"
        ], 
        "values": [
            "AT...", 
            "BA...", 
            "HU...", 
            "MC...", 
            "PU...", 
            "RH...", 
            "TF...", 
            "TH...", 
            "TM...", 
            "TW...", 
            "WA...", 
            "WE...", 
            "WF...", 
            "WW..."
        ], 
        "log": false
    }, 
    "Rock Type Index": {
        "discrete": true, 
        "colors": [
            "#0000ff", 
            "#0093ff", 
            "#32ffcc", 
            "#ccff32", 
            "#ffcb00", 
            "#ff0000"
        ], 
        "values": [
            0, 
            1, 
            2, 
            3, 
            4, 
            5
        ], 
        "log": false, 
        "regular_expression": false
    }, 
    "Waiwera Cell Index": {
        "discrete": true, 
        "colors": [
            "#0000ff", 
            "#0093ff", 
            "#32ffcc", 
            "#ccff32", 
            "#ffcb00", 
            "#ff0000"
        ], 
        "values": [
            0, 
            1, 
            2, 
            3, 
            4, 
            5
        ], 
        "log": false, 
        "regular_expression": false
    }, 
    "K 3": {
        "discrete": false, 
        "colors": [
            "#0000ff", 
            "#87ceeb", 
            "#90ee90", 
            "#ffff00", 
            "#ffa500", 
            "#ff4500", 
            "#ff0000"
        ], 
        "label_formatter": "format_perm", 
        "values": [
            -16.0, 
            -15.5, 
            -15.0, 
            -14.5, 
            -14.0, 
            -13.5, 
            -13.0
        ], 
        "log": true
    }, 
    "Depth": {
        "discrete": false, 
        "colors": [
            "#0000ff", 
            "#87ceeb", 
            "#90ee90", 
            "#ffff00", 
            "#ffa500", 
            "#ff4500", 
            "#ff0000"
        ], 
        "values": [
            0.0, 
            500.0, 
            1000.0, 
            1500.0, 
            2000.0, 
            2500.0, 
            3000.0
        ], 
        "log": false
    }, 
    "Liquid densit": {
        "discrete": false, 
        "colors": [
            "#0000ff", 
            "#87ceeb", 
            "#90ee90", 
            "#ffff00", 
            "#ffa500", 
            "#ff4500", 
            "#ff0000"
        ], 
        "values": [
            800.0, 
            833.0, 
            866.0, 
            900.0, 
            933.0, 
            966.0, 
            1000.0
        ], 
        "log": false
    }
}