[
    {"key": "Ctrl+O", "command": "open_geo"},
    {"key": "Ctrl+D", "command": "open_dat"},
    {"key": "Ctrl+L", "command": "open_lst"},
    {"key": "Ctrl+S", "command": "save_dat"},

    {"key": "Ctrl+I", "command": "console_start"},

    {"key": "Ctrl+[", "command": "block_text_smaller"},
    {"key": "Ctrl+]", "command": "block_text_larger"},

    {"key": "Ctrl+Shift+[", "command": "well_text_smaller"},
    {"key": "Ctrl+Shift+]", "command": "well_text_larger"},

    {"key": "Ctrl+Q", "command": "focus_main_view"},
    {"key": "Escape", "command": "focus_main_view"},
    {"key": "Ctrl+`", "command": "focus_scene_list"},
    {"key": "Ctrl+1", "command": "focus_color_list"},
    {"key": "Ctrl+2", "command": "focus_text_list"},
    {"key": "Ctrl+3", "command": "focus_arrow_list"},

    {"key": "Ctrl+F", "command": "find"},

    {"key": "Ctrl++", "command": "zoom_in"},
    {"key": "Ctrl+=", "command": "zoom_in"},
    {"key": "Ctrl+-", "command": "zoom_out"},
    {"key": "Ctrl+Backspace", "command": "reset_scale"},

    {"key": "Ctrl+J", "command": "nextPlot", "widget": "plot_board"},
    {"key": "Ctrl+K", "command": "prevPlot", "widget": "plot_board"},

    {"key": "Ctrl+R", "command": "run_model"},
    {"key": "Ctrl+B", "command": "batch_plot"}

]